2018-04-13 19:21:02.366 0 INFO  eu.profinit.manta.platform.master.MasterScenario$TaskLauncher Starting execution of task: ScenarioExecutionTask and input: Oracle.properties.
2018-04-13 19:21:02.741 0 INFO  eu.profinit.manta.platform.parallel.ParallelFileReader Creating ParallelFileReader
2018-04-13 19:21:02.819 0 INFO  eu.profinit.manta.platform.master.ScenarioExecutionTask Executing scenario 'Oracle PLSQL Delete Incremental Parallel Scenario' ...
2018-04-13 19:21:03.069 0 ERROR eu.profinit.manta.platform.automation.MantaVersion Wrong format of version - 1.20.INCREMENT-SNAPSHOT.
2018-04-13 19:21:03.101 1 INFO  eu.profinit.manta.platform.parallel.ParallelScenario$ScenarioLauncher Starting execution of scenario: Oracle PLSQL Delete Incremental Scenario. Worker: 1.
2018-04-13 19:21:03.101 0 ERROR eu.profinit.manta.platform.automation.MantaVersion Wrong format of version - 1.20.INCREMENT-SNAPSHOT.
2018-04-13 19:21:03.101 2 INFO  eu.profinit.manta.platform.parallel.ParallelScenario$ScenarioLauncher Starting execution of scenario: Oracle PLSQL Delete Incremental Scenario. Worker: 2.
2018-04-13 19:21:03.101 0 ERROR eu.profinit.manta.platform.automation.MantaVersion Wrong format of version - 1.20.INCREMENT-SNAPSHOT.
2018-04-13 19:21:03.101 3 INFO  eu.profinit.manta.platform.parallel.ParallelScenario$ScenarioLauncher Starting execution of scenario: Oracle PLSQL Delete Incremental Scenario. Worker: 3.
2018-04-13 19:21:03.101 0 ERROR eu.profinit.manta.platform.automation.MantaVersion Wrong format of version - 1.20.INCREMENT-SNAPSHOT.
2018-04-13 19:21:03.101 4 INFO  eu.profinit.manta.platform.parallel.ParallelScenario$ScenarioLauncher Starting execution of scenario: Oracle PLSQL Delete Incremental Scenario. Worker: 4.
2018-04-13 19:21:03.116 1 INFO  eu.profinit.manta.connector.oracle.OracleReader The default schema name for script \VE_DM_KALENDARZ_.sql is set to VE_DM_KALENDARZ_.sql
2018-04-13 19:21:03.116 2 INFO  eu.profinit.manta.connector.oracle.OracleReader The default schema name for script \VE_DM_S_KLI_WYLACZENI_.sql is set to VE_DM_S_KLI_WYLACZENI_.sql
2018-04-13 19:21:03.116 3 INFO  eu.profinit.manta.connector.oracle.OracleReader The default schema name for script \VE_DM_S_KOD_UBEZ_KON_KART_.sql is set to VE_DM_S_KOD_UBEZ_KON_KART_.sql
2018-04-13 19:21:03.116 4 INFO  eu.profinit.manta.connector.oracle.OracleReader The default schema name for script \VE_DM_S_TYP_SALDA_.sql is set to VE_DM_S_TYP_SALDA_.sql
2018-04-13 19:21:04.913 1 INFO  eu.profinit.manta.dataflow.repository.merger.client.IncrementalDeleteTask Starting execution
2018-04-13 19:21:04.913 1 INFO  eu.profinit.manta.dataflow.generator.modelutils.GraphScenario Processed file \VE_DM_KALENDARZ_.sql, found 0 edges.
2018-04-13 19:21:04.929 1 INFO  eu.profinit.manta.connector.oracle.OracleReader The default schema name for script \VE_DM_TRANSLACJA_.sql is set to VE_DM_TRANSLACJA_.sql
2018-04-13 19:21:04.929 4 INFO  eu.profinit.manta.dataflow.repository.merger.client.IncrementalDeleteTask Starting execution
2018-04-13 19:21:04.945 4 INFO  eu.profinit.manta.dataflow.generator.modelutils.GraphScenario Processed file \VE_DM_S_TYP_SALDA_.sql, found 0 edges.
2018-04-13 19:21:04.960 4 INFO  eu.profinit.manta.connector.oracle.OracleReader The default schema name for script \V_PROCESS_EXEC.sql is set to V_PROCESS_EXEC.sql
2018-04-13 19:21:04.960 3 INFO  eu.profinit.manta.dataflow.repository.merger.client.IncrementalDeleteTask Starting execution
2018-04-13 19:21:04.960 3 INFO  eu.profinit.manta.dataflow.generator.modelutils.GraphScenario Processed file \VE_DM_S_KOD_UBEZ_KON_KART_.sql, found 0 edges.
2018-04-13 19:21:04.960 3 INFO  eu.profinit.manta.connector.oracle.OracleReader The default schema name for script \V_PROCESS_EXEC_LAST.sql is set to V_PROCESS_EXEC_LAST.sql
2018-04-13 19:21:04.976 2 INFO  eu.profinit.manta.dataflow.repository.merger.client.IncrementalDeleteTask Starting execution
2018-04-13 19:21:04.976 2 INFO  eu.profinit.manta.dataflow.generator.modelutils.GraphScenario Processed file \VE_DM_S_KLI_WYLACZENI_.sql, found 0 edges.
2018-04-13 19:21:04.992 2 INFO  eu.profinit.manta.connector.oracle.OracleReader The default schema name for script \V_PROCESS_EXEC_LAST_OK.sql is set to V_PROCESS_EXEC_LAST_OK.sql
2018-04-13 19:21:05.163 1 INFO  eu.profinit.manta.dataflow.repository.merger.client.IncrementalDeleteTask Starting execution
2018-04-13 19:21:05.179 1 INFO  eu.profinit.manta.dataflow.generator.modelutils.GraphScenario Processed file \VE_DM_TRANSLACJA_.sql, found 0 edges.
2018-04-13 19:21:05.179 1 INFO  eu.profinit.manta.connector.oracle.OracleReader The default schema name for script \V_PROCESS_EXEC_MSG_LAST.sql is set to V_PROCESS_EXEC_MSG_LAST.sql
2018-04-13 19:21:05.320 4 INFO  eu.profinit.manta.dataflow.repository.merger.client.IncrementalDeleteTask Starting execution
2018-04-13 19:21:05.320 4 INFO  eu.profinit.manta.dataflow.generator.modelutils.GraphScenario Processed file \V_PROCESS_EXEC.sql, found 0 edges.
2018-04-13 19:21:05.335 4 INFO  eu.profinit.manta.connector.oracle.OracleReader The default schema name for script \V_PROCESS_EXEC_MSG_LAST_OK.sql is set to V_PROCESS_EXEC_MSG_LAST_OK.sql
2018-04-13 19:21:05.413 3 INFO  eu.profinit.manta.dataflow.repository.merger.client.IncrementalDeleteTask Starting execution
2018-04-13 19:21:05.413 3 INFO  eu.profinit.manta.dataflow.generator.modelutils.GraphScenario Processed file \V_PROCESS_EXEC_LAST.sql, found 0 edges.
2018-04-13 19:21:05.413 3 INFO  eu.profinit.manta.connector.oracle.OracleReader The default schema name for script \V_PROCESS_EXEC_PARAM.sql is set to V_PROCESS_EXEC_PARAM.sql
2018-04-13 19:21:05.476 2 INFO  eu.profinit.manta.dataflow.repository.merger.client.IncrementalDeleteTask Starting execution
2018-04-13 19:21:05.476 2 INFO  eu.profinit.manta.dataflow.generator.modelutils.GraphScenario Processed file \V_PROCESS_EXEC_LAST_OK.sql, found 0 edges.
2018-04-13 19:21:05.492 2 INFO  eu.profinit.manta.connector.oracle.OracleReader The default schema name for script \V_PROCESS_EXEC_PARAM_LAST.sql is set to V_PROCESS_EXEC_PARAM_LAST.sql
2018-04-13 19:21:05.554 1 INFO  eu.profinit.manta.dataflow.repository.merger.client.IncrementalDeleteTask Starting execution
2018-04-13 19:21:05.570 1 INFO  eu.profinit.manta.dataflow.generator.modelutils.GraphScenario Processed file \V_PROCESS_EXEC_MSG_LAST.sql, found 0 edges.
2018-04-13 19:21:05.570 1 INFO  eu.profinit.manta.connector.oracle.OracleReader The default schema name for script \V_PROCESS_EXEC_PARAM_LAST_OK.sql is set to V_PROCESS_EXEC_PARAM_LAST_OK.sql
2018-04-13 19:21:05.710 4 INFO  eu.profinit.manta.dataflow.repository.merger.client.IncrementalDeleteTask Starting execution
2018-04-13 19:21:05.710 4 INFO  eu.profinit.manta.dataflow.generator.modelutils.GraphScenario Processed file \V_PROCESS_EXEC_MSG_LAST_OK.sql, found 0 edges.
2018-04-13 19:21:05.710 4 INFO  eu.profinit.manta.connector.oracle.OracleReader The default schema name for script \V_PROCESS_TE.sql is set to V_PROCESS_TE.sql
2018-04-13 19:21:05.773 4 INFO  eu.profinit.manta.dataflow.repository.merger.client.IncrementalDeleteTask Starting execution
2018-04-13 19:21:05.773 4 INFO  eu.profinit.manta.dataflow.generator.modelutils.GraphScenario Processed file \V_PROCESS_TE.sql, found 0 edges.
2018-04-13 19:21:05.773 4 INFO  eu.profinit.manta.connector.oracle.OracleReader The default schema name for script \V_PROCESS_TN.sql is set to V_PROCESS_TN.sql
2018-04-13 19:21:05.773 3 INFO  eu.profinit.manta.dataflow.repository.merger.client.IncrementalDeleteTask Starting execution
2018-04-13 19:21:05.788 3 INFO  eu.profinit.manta.dataflow.generator.modelutils.GraphScenario Processed file \V_PROCESS_EXEC_PARAM.sql, found 0 edges.
2018-04-13 19:21:05.788 3 INFO  eu.profinit.manta.connector.oracle.OracleReader The default schema name for script \V_TMP_INCR_KLIE_01_MB.sql is set to V_TMP_INCR_KLIE_01_MB.sql
2018-04-13 19:21:05.804 2 INFO  eu.profinit.manta.dataflow.repository.merger.client.IncrementalDeleteTask Starting execution
2018-04-13 19:21:05.804 2 INFO  eu.profinit.manta.dataflow.generator.modelutils.GraphScenario Processed file \V_PROCESS_EXEC_PARAM_LAST.sql, found 0 edges.
2018-04-13 19:21:05.804 2 INFO  eu.profinit.manta.connector.oracle.OracleReader The default schema name for script \V_VM_KLI_GLOB_DEF_.sql is set to V_VM_KLI_GLOB_DEF_.sql
2018-04-13 19:21:05.835 1 INFO  eu.profinit.manta.dataflow.repository.merger.client.IncrementalDeleteTask Starting execution
2018-04-13 19:21:05.851 1 INFO  eu.profinit.manta.dataflow.generator.modelutils.GraphScenario Processed file \V_PROCESS_EXEC_PARAM_LAST_OK.sql, found 0 edges.
2018-04-13 19:21:05.851 1 INFO  eu.profinit.manta.connector.oracle.OracleReader The default schema name for script \V_VM_RETAIL_CDKEY_CUST.sql is set to V_VM_RETAIL_CDKEY_CUST.sql
2018-04-13 19:21:05.882 4 INFO  eu.profinit.manta.dataflow.repository.merger.client.IncrementalDeleteTask Starting execution
2018-04-13 19:21:05.882 4 INFO  eu.profinit.manta.dataflow.generator.modelutils.GraphScenario Processed file \V_PROCESS_TN.sql, found 0 edges.
2018-04-13 19:21:05.898 4 INFO  eu.profinit.manta.connector.oracle.OracleReader The default schema name for script \V_VM_RETAIL_CUST_CONTR.sql is set to V_VM_RETAIL_CUST_CONTR.sql
2018-04-13 19:21:06.085 3 INFO  eu.profinit.manta.dataflow.repository.merger.client.IncrementalDeleteTask Starting execution
2018-04-13 19:21:06.085 3 INFO  eu.profinit.manta.dataflow.generator.modelutils.GraphScenario Processed file \V_TMP_INCR_KLIE_01_MB.sql, found 0 edges.
2018-04-13 19:21:06.085 3 INFO  eu.profinit.manta.connector.oracle.OracleReader The default schema name for script \V_VM_RETAIL_CUST_CUST.sql is set to V_VM_RETAIL_CUST_CUST.sql
2018-04-13 19:21:06.085 1 INFO  eu.profinit.manta.dataflow.repository.merger.client.IncrementalDeleteTask Starting execution
2018-04-13 19:21:06.085 1 INFO  eu.profinit.manta.dataflow.generator.modelutils.GraphScenario Processed file \V_VM_RETAIL_CDKEY_CUST.sql, found 0 edges.
2018-04-13 19:21:06.085 1 INFO  eu.profinit.manta.connector.oracle.OracleReader The default schema name for script \V_VM_RETAIL_DEFAULT.sql is set to V_VM_RETAIL_DEFAULT.sql
2018-04-13 19:21:06.085 2 INFO  eu.profinit.manta.dataflow.repository.merger.client.IncrementalDeleteTask Starting execution
2018-04-13 19:21:06.085 2 INFO  eu.profinit.manta.dataflow.generator.modelutils.GraphScenario Processed file \V_VM_KLI_GLOB_DEF_.sql, found 0 edges.
2018-04-13 19:21:06.085 2 INFO  eu.profinit.manta.connector.oracle.OracleReader The default schema name for script \V_VM_RETAIL_DEFAULT_2.sql is set to V_VM_RETAIL_DEFAULT_2.sql
2018-04-13 19:21:06.101 4 INFO  eu.profinit.manta.dataflow.repository.merger.client.IncrementalDeleteTask Starting execution
2018-04-13 19:21:06.101 4 INFO  eu.profinit.manta.dataflow.generator.modelutils.GraphScenario Processed file \V_VM_RETAIL_CUST_CONTR.sql, found 0 edges.
2018-04-13 19:21:06.101 4 INFO  eu.profinit.manta.connector.oracle.OracleReader The default schema name for script \V_VM_S1_CONTRACT.sql is set to V_VM_S1_CONTRACT.sql
2018-04-13 19:21:06.382 2 INFO  eu.profinit.manta.dataflow.repository.merger.client.IncrementalDeleteTask Starting execution
2018-04-13 19:21:06.382 2 INFO  eu.profinit.manta.dataflow.generator.modelutils.GraphScenario Processed file \V_VM_RETAIL_DEFAULT_2.sql, found 0 edges.
2018-04-13 19:21:06.382 1 INFO  eu.profinit.manta.dataflow.repository.merger.client.IncrementalDeleteTask Starting execution
2018-04-13 19:21:06.382 1 INFO  eu.profinit.manta.dataflow.generator.modelutils.GraphScenario Processed file \V_VM_RETAIL_DEFAULT.sql, found 0 edges.
2018-04-13 19:21:06.382 2 INFO  eu.profinit.manta.connector.oracle.OracleReader The default schema name for script \V_VM_S1_CUSTOMER.sql is set to V_VM_S1_CUSTOMER.sql
2018-04-13 19:21:06.382 1 INFO  eu.profinit.manta.connector.oracle.OracleReader The default schema name for script \V_VM_UF_CONTRACT.sql is set to V_VM_UF_CONTRACT.sql
2018-04-13 19:21:06.414 3 INFO  eu.profinit.manta.dataflow.repository.merger.client.IncrementalDeleteTask Starting execution
2018-04-13 19:21:06.414 3 INFO  eu.profinit.manta.dataflow.generator.modelutils.GraphScenario Processed file \V_VM_RETAIL_CUST_CUST.sql, found 0 edges.
2018-04-13 19:21:06.414 3 INFO  eu.profinit.manta.dataflow.generator.modelutils.GraphScenario Processed 5 of 5 files in 3 298 ms.
2018-04-13 19:21:06.414 3 INFO  eu.profinit.manta.platform.parallel.ParallelFileReader Closing inner reader.
2018-04-13 19:21:06.429 4 INFO  eu.profinit.manta.dataflow.repository.merger.client.IncrementalDeleteTask Starting execution
2018-04-13 19:21:06.445 4 INFO  eu.profinit.manta.dataflow.generator.modelutils.GraphScenario Processed file \V_VM_S1_CONTRACT.sql, found 0 edges.
2018-04-13 19:21:06.445 4 INFO  eu.profinit.manta.dataflow.generator.modelutils.GraphScenario Processed 7 of 7 files in 3 329 ms.
2018-04-13 19:21:06.523 4 INFO  eu.profinit.manta.dataflow.repository.merger.client.AbstractMergerWriter Sending data to server http://localhost:8080/manta-dataflow-server/api/merge.
2018-04-13 19:21:06.523 3 INFO  eu.profinit.manta.dataflow.repository.merger.client.AbstractMergerWriter Sending data to server http://localhost:8080/manta-dataflow-server/api/merge.
2018-04-13 19:21:06.570 1 INFO  eu.profinit.manta.dataflow.repository.merger.client.IncrementalDeleteTask Starting execution
2018-04-13 19:21:06.585 1 INFO  eu.profinit.manta.dataflow.generator.modelutils.GraphScenario Processed file \V_VM_UF_CONTRACT.sql, found 0 edges.
2018-04-13 19:21:06.585 2 INFO  eu.profinit.manta.dataflow.repository.merger.client.IncrementalDeleteTask Starting execution
2018-04-13 19:21:06.585 1 INFO  eu.profinit.manta.dataflow.generator.modelutils.GraphScenario Processed 7 of 7 files in 3 484 ms.
2018-04-13 19:21:06.585 2 INFO  eu.profinit.manta.dataflow.generator.modelutils.GraphScenario Processed file \V_VM_S1_CUSTOMER.sql, found 0 edges.
2018-04-13 19:21:06.585 2 INFO  eu.profinit.manta.dataflow.generator.modelutils.GraphScenario Processed 6 of 6 files in 3 469 ms.
2018-04-13 19:21:06.585 1 INFO  eu.profinit.manta.dataflow.repository.merger.client.AbstractMergerWriter Sending data to server http://localhost:8080/manta-dataflow-server/api/merge.
2018-04-13 19:21:06.585 2 INFO  eu.profinit.manta.dataflow.repository.merger.client.AbstractMergerWriter Sending data to server http://localhost:8080/manta-dataflow-server/api/merge.
2018-04-13 19:21:06.892 4 INFO  eu.profinit.manta.dataflow.repository.merger.client.AbstractMergerWriter Response from server: {"processingReport":{"newObjects":{"source_code":0,"node_attribute":0,"node":0,"edge":0,"edge_attribute":0,"resource":0,"layer":0},"errorObjects":{"source_code":0,"node_attribute":0,"node":0,"edge":0,"edge_attribute":0,"resource":0,"layer":0},"existedObjects":{"source_code":0,"node_attribute":0,"node":8,"edge":0,"edge_attribute":0,"resource":1,"layer":1},"unknownTypes":0,"lastResultType":null,"rollbackNumber":0,"longestRollbackChain":0,"processedObjects":10,"requestedSourceCodes":0,"newObjectsCount":0},"proccessingTime":127}. 
2018-04-13 19:21:06.892 4 INFO  eu.profinit.manta.platform.parallel.ParallelScenario$ScenarioLauncher Finishing execution of scenario: Oracle PLSQL Delete Incremental Scenario. Worker: 4.
2018-04-13 19:21:06.939 3 INFO  eu.profinit.manta.dataflow.repository.merger.client.AbstractMergerWriter Response from server: {"processingReport":{"newObjects":{"source_code":0,"node_attribute":0,"node":0,"edge":0,"edge_attribute":0,"resource":0,"layer":0},"errorObjects":{"source_code":0,"node_attribute":0,"node":0,"edge":0,"edge_attribute":0,"resource":0,"layer":0},"existedObjects":{"source_code":0,"node_attribute":0,"node":6,"edge":0,"edge_attribute":0,"resource":1,"layer":1},"unknownTypes":0,"lastResultType":null,"rollbackNumber":0,"longestRollbackChain":0,"processedObjects":8,"requestedSourceCodes":0,"newObjectsCount":0},"proccessingTime":338}. 
2018-04-13 19:21:06.939 3 INFO  eu.profinit.manta.platform.parallel.ParallelScenario$ScenarioLauncher Finishing execution of scenario: Oracle PLSQL Delete Incremental Scenario. Worker: 3.
2018-04-13 19:21:07.029 1 INFO  eu.profinit.manta.dataflow.repository.merger.client.AbstractMergerWriter Response from server: {"processingReport":{"newObjects":{"source_code":0,"node_attribute":0,"node":0,"edge":0,"edge_attribute":0,"resource":0,"layer":0},"errorObjects":{"source_code":0,"node_attribute":0,"node":0,"edge":0,"edge_attribute":0,"resource":0,"layer":0},"existedObjects":{"source_code":0,"node_attribute":0,"node":8,"edge":0,"edge_attribute":0,"resource":1,"layer":1},"unknownTypes":0,"lastResultType":null,"rollbackNumber":0,"longestRollbackChain":0,"processedObjects":10,"requestedSourceCodes":0,"newObjectsCount":0},"proccessingTime":412}. 
2018-04-13 19:21:07.044 1 INFO  eu.profinit.manta.platform.parallel.ParallelScenario$ScenarioLauncher Finishing execution of scenario: Oracle PLSQL Delete Incremental Scenario. Worker: 1.
2018-04-13 19:21:07.044 2 INFO  eu.profinit.manta.dataflow.repository.merger.client.AbstractMergerWriter Response from server: {"processingReport":{"newObjects":{"source_code":0,"node_attribute":0,"node":0,"edge":0,"edge_attribute":0,"resource":0,"layer":0},"errorObjects":{"source_code":0,"node_attribute":0,"node":0,"edge":0,"edge_attribute":0,"resource":0,"layer":0},"existedObjects":{"source_code":0,"node_attribute":0,"node":7,"edge":0,"edge_attribute":0,"resource":1,"layer":1},"unknownTypes":0,"lastResultType":null,"rollbackNumber":0,"longestRollbackChain":0,"processedObjects":9,"requestedSourceCodes":0,"newObjectsCount":0},"proccessingTime":427}. 
2018-04-13 19:21:07.044 2 INFO  eu.profinit.manta.platform.parallel.ParallelScenario$ScenarioLauncher Finishing execution of scenario: Oracle PLSQL Delete Incremental Scenario. Worker: 2.
2018-04-13 19:21:07.044 0 INFO  eu.profinit.manta.platform.parallel.ParallelScenario Finishing Parallel Scenario in 4225 ms.
2018-04-13 19:21:07.044 0 INFO  eu.profinit.manta.ast.parser.stats.ParsingStatisticsService Successfully processed 100,0% scripts (100,0% statements)
2018-04-13 19:21:07.044 0 INFO  eu.profinit.manta.connector.common.dictionary.dao.jdbc.H2DictionaryDAO Closing H2DictionaryDAO
2018-04-13 19:21:07.060 0 INFO  eu.profinit.manta.dataflow.repository.merger.client.StandardSourceCodeService Waiting for finishing upload.
2018-04-13 19:21:07.060 0 INFO  eu.profinit.manta.dataflow.repository.merger.client.StandardSourceCodeService Everything done.
2018-04-13 19:21:07.060 0 INFO  eu.profinit.manta.platform.master.MasterScenario$TaskLauncher Finishing execution of task: ScenarioExecutionTask and input: Oracle.properties.
