2018-04-13 19:03:27.375 0 INFO  eu.profinit.manta.platform.master.MasterScenario$TaskLauncher Starting execution of task: ScenarioExecutionTask and input: Oracle.properties.
2018-04-13 19:03:27.751 0 INFO  eu.profinit.manta.platform.parallel.ParallelFileReader Creating ParallelFileReader
2018-04-13 19:03:27.829 0 INFO  eu.profinit.manta.platform.master.ScenarioExecutionTask Executing scenario 'Oracle PLSQL Delete Incremental Parallel Scenario' ...
2018-04-13 19:03:28.079 0 ERROR eu.profinit.manta.platform.automation.MantaVersion Wrong format of version - 1.20.INCREMENT-SNAPSHOT.
2018-04-13 19:03:28.094 1 INFO  eu.profinit.manta.platform.parallel.ParallelScenario$ScenarioLauncher Starting execution of scenario: Oracle PLSQL Delete Incremental Scenario. Worker: 1.
2018-04-13 19:03:28.094 0 ERROR eu.profinit.manta.platform.automation.MantaVersion Wrong format of version - 1.20.INCREMENT-SNAPSHOT.
2018-04-13 19:03:28.094 2 INFO  eu.profinit.manta.platform.parallel.ParallelScenario$ScenarioLauncher Starting execution of scenario: Oracle PLSQL Delete Incremental Scenario. Worker: 2.
2018-04-13 19:03:28.094 0 ERROR eu.profinit.manta.platform.automation.MantaVersion Wrong format of version - 1.20.INCREMENT-SNAPSHOT.
2018-04-13 19:03:28.110 3 INFO  eu.profinit.manta.platform.parallel.ParallelScenario$ScenarioLauncher Starting execution of scenario: Oracle PLSQL Delete Incremental Scenario. Worker: 3.
2018-04-13 19:03:28.110 0 ERROR eu.profinit.manta.platform.automation.MantaVersion Wrong format of version - 1.20.INCREMENT-SNAPSHOT.
2018-04-13 19:03:28.110 4 INFO  eu.profinit.manta.platform.parallel.ParallelScenario$ScenarioLauncher Starting execution of scenario: Oracle PLSQL Delete Incremental Scenario. Worker: 4.
2018-04-13 19:03:28.110 2 INFO  eu.profinit.manta.connector.oracle.OracleReader The default schema name for script \VE_DM_S_KLI_WYLACZENI_.sql is set to VE_DM_S_KLI_WYLACZENI_.sql
2018-04-13 19:03:28.110 1 INFO  eu.profinit.manta.connector.oracle.OracleReader The default schema name for script \VE_DM_KALENDARZ_.sql is set to VE_DM_KALENDARZ_.sql
2018-04-13 19:03:28.110 3 INFO  eu.profinit.manta.connector.oracle.OracleReader The default schema name for script \VE_DM_S_KOD_UBEZ_KON_KART_.sql is set to VE_DM_S_KOD_UBEZ_KON_KART_.sql
2018-04-13 19:03:28.126 4 INFO  eu.profinit.manta.connector.oracle.OracleReader The default schema name for script \VE_DM_S_TYP_SALDA_.sql is set to VE_DM_S_TYP_SALDA_.sql
2018-04-13 19:03:29.798 4 INFO  eu.profinit.manta.dataflow.repository.merger.client.IncrementalDeleteTask Starting execution
2018-04-13 19:03:29.798 1 INFO  eu.profinit.manta.dataflow.repository.merger.client.IncrementalDeleteTask Starting execution
2018-04-13 19:03:29.798 1 INFO  eu.profinit.manta.dataflow.generator.modelutils.GraphScenario Processed file \VE_DM_KALENDARZ_.sql, found 0 edges.
2018-04-13 19:03:29.798 4 INFO  eu.profinit.manta.dataflow.generator.modelutils.GraphScenario Processed file \VE_DM_S_TYP_SALDA_.sql, found 0 edges.
2018-04-13 19:03:29.798 4 INFO  eu.profinit.manta.dataflow.generator.modelutils.GraphScenario Processed 1 of 1 files in 1 672 ms.
2018-04-13 19:03:29.798 4 INFO  eu.profinit.manta.platform.parallel.ParallelFileReader Closing inner reader.
2018-04-13 19:03:29.798 1 INFO  eu.profinit.manta.connector.oracle.OracleReader The default schema name for script \VE_DM_TRANSLACJA_.sql is set to VE_DM_TRANSLACJA_.sql
2018-04-13 19:03:29.844 3 INFO  eu.profinit.manta.dataflow.repository.merger.client.IncrementalDeleteTask Starting execution
2018-04-13 19:03:29.844 3 INFO  eu.profinit.manta.dataflow.generator.modelutils.GraphScenario Processed file \VE_DM_S_KOD_UBEZ_KON_KART_.sql, found 0 edges.
2018-04-13 19:03:29.860 3 INFO  eu.profinit.manta.dataflow.generator.modelutils.GraphScenario Processed 1 of 1 files in 1 750 ms.
2018-04-13 19:03:29.860 2 INFO  eu.profinit.manta.dataflow.repository.merger.client.IncrementalDeleteTask Starting execution
2018-04-13 19:03:29.860 2 INFO  eu.profinit.manta.dataflow.generator.modelutils.GraphScenario Processed file \VE_DM_S_KLI_WYLACZENI_.sql, found 0 edges.
2018-04-13 19:03:29.860 2 INFO  eu.profinit.manta.dataflow.generator.modelutils.GraphScenario Processed 1 of 1 files in 1 750 ms.
2018-04-13 19:03:29.907 3 INFO  eu.profinit.manta.dataflow.repository.merger.client.AbstractMergerWriter Sending data to server http://localhost:8080/manta-dataflow-server/api/merge.
2018-04-13 19:03:29.907 2 INFO  eu.profinit.manta.dataflow.repository.merger.client.AbstractMergerWriter Sending data to server http://localhost:8080/manta-dataflow-server/api/merge.
2018-04-13 19:03:29.907 4 INFO  eu.profinit.manta.dataflow.repository.merger.client.AbstractMergerWriter Sending data to server http://localhost:8080/manta-dataflow-server/api/merge.
2018-04-13 19:03:30.001 1 INFO  eu.profinit.manta.dataflow.repository.merger.client.IncrementalDeleteTask Starting execution
2018-04-13 19:03:30.001 1 INFO  eu.profinit.manta.dataflow.generator.modelutils.GraphScenario Processed file \VE_DM_TRANSLACJA_.sql, found 0 edges.
2018-04-13 19:03:30.007 1 INFO  eu.profinit.manta.dataflow.generator.modelutils.GraphScenario Processed 2 of 2 files in 1 891 ms.
2018-04-13 19:03:30.009 1 INFO  eu.profinit.manta.dataflow.repository.merger.client.AbstractMergerWriter Sending data to server http://localhost:8080/manta-dataflow-server/api/merge.
2018-04-13 19:03:30.269 1 INFO  eu.profinit.manta.dataflow.repository.merger.client.AbstractMergerWriter Response from server: {"processingReport":{"newObjects":{"source_code":0,"node_attribute":0,"node":0,"edge":0,"edge_attribute":0,"resource":0,"layer":0},"errorObjects":{"source_code":0,"node_attribute":0,"node":0,"edge":0,"edge_attribute":0,"resource":0,"layer":0},"existedObjects":{"source_code":0,"node_attribute":0,"node":3,"edge":0,"edge_attribute":0,"resource":1,"layer":1},"unknownTypes":0,"lastResultType":null,"rollbackNumber":0,"longestRollbackChain":0,"processedObjects":5,"requestedSourceCodes":0,"newObjectsCount":0},"proccessingTime":196}. 
2018-04-13 19:03:30.269 2 INFO  eu.profinit.manta.dataflow.repository.merger.client.AbstractMergerWriter Response from server: {"processingReport":{"newObjects":{"source_code":0,"node_attribute":0,"node":0,"edge":0,"edge_attribute":0,"resource":0,"layer":0},"errorObjects":{"source_code":0,"node_attribute":0,"node":0,"edge":0,"edge_attribute":0,"resource":0,"layer":0},"existedObjects":{"source_code":0,"node_attribute":0,"node":2,"edge":0,"edge_attribute":0,"resource":1,"layer":1},"unknownTypes":0,"lastResultType":null,"rollbackNumber":0,"longestRollbackChain":0,"processedObjects":4,"requestedSourceCodes":0,"newObjectsCount":0},"proccessingTime":181}. 
2018-04-13 19:03:30.269 4 INFO  eu.profinit.manta.dataflow.repository.merger.client.AbstractMergerWriter Response from server: {"processingReport":{"newObjects":{"source_code":0,"node_attribute":0,"node":0,"edge":0,"edge_attribute":0,"resource":0,"layer":0},"errorObjects":{"source_code":0,"node_attribute":0,"node":0,"edge":0,"edge_attribute":0,"resource":0,"layer":0},"existedObjects":{"source_code":0,"node_attribute":0,"node":2,"edge":0,"edge_attribute":0,"resource":1,"layer":1},"unknownTypes":0,"lastResultType":null,"rollbackNumber":0,"longestRollbackChain":0,"processedObjects":4,"requestedSourceCodes":0,"newObjectsCount":0},"proccessingTime":124}. 
2018-04-13 19:03:30.269 3 INFO  eu.profinit.manta.dataflow.repository.merger.client.AbstractMergerWriter Response from server: {"processingReport":{"newObjects":{"source_code":0,"node_attribute":0,"node":0,"edge":0,"edge_attribute":0,"resource":0,"layer":0},"errorObjects":{"source_code":0,"node_attribute":0,"node":0,"edge":0,"edge_attribute":0,"resource":0,"layer":0},"existedObjects":{"source_code":0,"node_attribute":0,"node":2,"edge":0,"edge_attribute":0,"resource":1,"layer":1},"unknownTypes":0,"lastResultType":null,"rollbackNumber":0,"longestRollbackChain":0,"processedObjects":4,"requestedSourceCodes":0,"newObjectsCount":0},"proccessingTime":237}. 
2018-04-13 19:03:30.269 1 INFO  eu.profinit.manta.platform.parallel.ParallelScenario$ScenarioLauncher Finishing execution of scenario: Oracle PLSQL Delete Incremental Scenario. Worker: 1.
2018-04-13 19:03:30.269 4 INFO  eu.profinit.manta.platform.parallel.ParallelScenario$ScenarioLauncher Finishing execution of scenario: Oracle PLSQL Delete Incremental Scenario. Worker: 4.
2018-04-13 19:03:30.269 2 INFO  eu.profinit.manta.platform.parallel.ParallelScenario$ScenarioLauncher Finishing execution of scenario: Oracle PLSQL Delete Incremental Scenario. Worker: 2.
2018-04-13 19:03:30.269 3 INFO  eu.profinit.manta.platform.parallel.ParallelScenario$ScenarioLauncher Finishing execution of scenario: Oracle PLSQL Delete Incremental Scenario. Worker: 3.
2018-04-13 19:03:30.269 0 INFO  eu.profinit.manta.platform.parallel.ParallelScenario Finishing Parallel Scenario in 2440 ms.
2018-04-13 19:03:30.269 0 INFO  eu.profinit.manta.ast.parser.stats.ParsingStatisticsService Successfully processed 100,0% scripts (100,0% statements)
2018-04-13 19:03:30.269 0 INFO  eu.profinit.manta.connector.common.dictionary.dao.jdbc.H2DictionaryDAO Closing H2DictionaryDAO
2018-04-13 19:03:30.269 0 INFO  eu.profinit.manta.dataflow.repository.merger.client.StandardSourceCodeService Waiting for finishing upload.
2018-04-13 19:03:30.284 0 INFO  eu.profinit.manta.dataflow.repository.merger.client.StandardSourceCodeService Everything done.
2018-04-13 19:03:30.284 0 INFO  eu.profinit.manta.platform.master.MasterScenario$TaskLauncher Finishing execution of task: ScenarioExecutionTask and input: Oracle.properties.
