{
    "name": "By Resource",
    "checked": true,
    "priority": 0, 
    "definitions": [   
        {
            "identification": {
                "type": "any"
            },      
            "colorSchema": {
                "group": {
                    "bgcolor" : "#e0e2e4",
                    "color" : "#393b3d",
                    "borderColor" : "#3a3b3d",
                    "positive" : true
                },
                "object": {
                    "bgcolor" : "#616365",
                    "color" : "#ffffff",
                    "borderWidth" : 0,
                    "positive" : false
                },
                "column": {
                    "bgcolor" : "#ffffff",
                    "color" : "#616365",
                    "borderWidth" : 0,
                    "positive" : true          
                }
            }    
        },
        {
            "identification": {
                "type": "resource",
                "value": "Filesystem"
            }, 
            "colorSchema": {
                "group": {
                    "bgcolor" : "#d7f5f5",
                    "color" : "#393b3d",
                    "borderColor" : "#072b2f",
                    "positive" : true
                },
                "object": {
                    "bgcolor" : "#0c474f",
                    "color" : "#ffffff",
                    "borderWidth" : 0,
                    "positive" : false
                },
                "column": {
                    "bgcolor" : "#ffffff",
                    "color" : "#616365",
                    "borderWidth" : 0,
                    "positive" : true            
                }
            }    
        },
        {
            "identification": {
                "type": "resource",
                "value": "IFPC"
            }, 
            "colorSchema": {
                "group": {
                    "bgcolor" : "#dcfaff",
                    "color" : "#393b3d",
                    "borderColor" : "#172b40",
                    "positive" : true
                },
                "object": {
                    "bgcolor" : "#0d57a0",
                    "color" : "#ffffff",
                    "borderWidth" : 0,
                    "positive" : false
                },
                "column": {
                    "bgcolor" : "#ffffff",
                    "color" : "#616365",
                    "borderWidth" : 0,
                    "positive" : true          
                }
            }    
        },
        {
            "identification": {
                "type": "resource",
                "value": "Teradata"
            }, 
            "colorSchema": {
                "group": {
                    "bgcolor" : "#ffedd8",
                    "color" : "#393b3d",
                    "borderColor" : "#964c08",
                    "positive" : true
                },
                "object": {
                    "bgcolor" : "#fa7f0d",
                    "color" : "#ffffff",
                    "borderWidth" : 0,
                    "positive" : false
                },
                "column": {
                    "bgcolor" : "#ffffff",
                    "color" : "#616365",
                    "borderWidth" : 0,
                    "positive" : true          
                }
            }    
        },
        {
            "identification": {
                "type": "resource",
                "value": "Teradata scripts"
            }, 
            "colorSchema": {
                "group": {
                    "bgcolor" : "#fff2e2",
                    "color" : "#393b3d",
                    "borderColor" : "#965f2c",
                    "positive" : true
                },
                "object": {
                    "bgcolor" : "#fa9b46",
                    "color" : "#ffffff",
                    "borderWidth" : 0,
                    "positive" : false
                },
                "column": {
                    "bgcolor" : "#ffffff",
                    "color" : "#616365",
                    "borderWidth" : 0,
                    "positive" : true          
                }
            }    
        },
        {
            "identification": {
                "type": "resource",
                "value": "TPT"
            }, 
            "colorSchema": {
                "group": {
                    "bgcolor" : "#ebf0f0",
                    "color" : "#393b3d",
                    "borderColor" : "#2b3634",
                    "positive" : true
                },
                "object": {
                    "bgcolor" : "#475a57",
                    "color" : "#ffffff",
                    "borderWidth" : 0,
                    "positive" : false
                },
                "column": {
                    "bgcolor" : "#ffffff",
                    "color" : "#616365",
                    "borderWidth" : 0,
                    "positive" : true          
                }
            }    
        } ,
        {
            "identification": {
                "type": "resource",
                "value": "Command"
            }, 
            "colorSchema": {
                "group": {
                    "bgcolor" : "#dcf8f2",
                    "color" : "#393b3d",
                    "borderColor" : "#012f2d",
                    "positive" : true
                },
                "object": {
                    "bgcolor" : "#014f4b",
                    "color" : "#ffffff",
                    "borderWidth" : 0,
                    "positive" : false
                },
                "column": {
                    "bgcolor" : "#ffffff",
                    "color" : "#616365",
                    "borderWidth" : 0,
                    "positive" : true          
                }
            }    
        } ,
        {
            "identification": {
                "type": "resource",
                "value": "Oracle"
            }, 
            "colorSchema": {
                "group": {
                    "bgcolor" : "#ffe4de",
                    "color" : "#393b3d",
                    "borderColor" : "#7d1e1a",
                    "positive" : true
                },
                "object": {
                    "bgcolor" : "#d0322c",
                    "color" : "#ffffff",
                    "borderWidth" : 0,
                    "positive" : false
                },
                "column": {
                    "bgcolor" : "#ffffff",
                    "color" : "#616365",
                    "borderWidth" : 0,
                    "positive" : true          
                }
            }    
        } ,
        {
            "identification": {
                "type": "resource",
                "value": "Oracle scripts"
            }, 
            "colorSchema": {
                "group": {
                    "bgcolor" : "#ffe9e5",
                    "color" : "#393b3d",
                    "borderColor" : "#7d312e",
                    "positive" : true
                },
                "object": {
                    "bgcolor" : "#d0524d",
                    "color" : "#ffffff",
                    "borderWidth" : 0,
                    "positive" : false
                },
                "column": {
                    "bgcolor" : "#ffffff",
                    "color" : "#616365",
                    "borderWidth" : 0,
                    "positive" : true          
                }
            }    
        } ,
        {
            "identification": {
                "type": "resource",
                "value": "MSSQL"
            }, 
            "colorSchema": {
                "group": {
                    "bgcolor" : "#e1ffeb",
                    "color" : "#393b3d",
                    "borderColor" : "#144622",
                    "positive" : true
                },
                "object": {
                    "bgcolor" : "#217438",
                    "color" : "#ffffff",
                    "borderWidth" : 0,
                    "positive" : false
                },
                "column": {
                    "bgcolor" : "#ffffff",
                    "color" : "#616365",
                    "borderWidth" : 0,
                    "positive" : true          
                }
            }    
        } ,
        {
            "identification": {
                "type": "resource",
                "value": "MSSQL scripts"
            }, 
            "colorSchema": {
                "group": {
                    "bgcolor" : "#ebfff0",
                    "color" : "#393b3d",
                    "borderColor" : "#3e5a49",
                    "positive" : true
                },
                "object": {
                    "bgcolor" : "#518864",
                    "color" : "#ffffff",
                    "borderWidth" : 0,
                    "positive" : false
                },
                "column": {
                    "bgcolor" : "#ffffff",
                    "color" : "#616365",
                    "borderWidth" : 0,
                    "positive" : true          
                }
            }    
        } ,
        {
            "identification": {
                "type": "resource",
                "value": "SSIS"
            }, 
            "colorSchema": {
                "group": {
                    "bgcolor" : "#dbf8eb",
                    "color" : "#393b3d",
                    "borderColor" : "#00381a",
                    "positive" : true
                },
                "object": {
                    "bgcolor" : "#115b3d",
                    "color" : "#ffffff",
                    "borderWidth" : 0,
                    "positive" : false
                },
                "column": {
                    "bgcolor" : "#ffffff",
                    "color" : "#616365",
                    "borderWidth" : 0,
                    "positive" : true
                }
            }
        } ,
        {
            "identification": {
                "type": "resource",
                "value": "Hive"
            }, 
            "colorSchema": {
                "group": {
                    "bgcolor" : "#f2fad4",
                    "color" : "#393b3d",
                    "borderColor" : "#6a6a00",
                    "positive" : true
                },
                "object": {
                    "bgcolor" : "#b2b200",
                    "color" : "#ffffff",
                    "borderWidth" : 0,
                    "positive" : false
                },
                "column": {
                    "bgcolor" : "#ffffff",
                    "color" : "#616365",
                    "borderWidth" : 0,
                    "positive" : true          
                },
                "innerColumn": {
                    "bgcolor" : "#ffffff",
                    "color" : "#616365",
                    "borderWidth" : 1,
                    "borderColor" : "#68b8b8",
                    "positive" : true          
                }
            }    
        } ,
        {
            "identification": {
                "type": "resource",
                "value": "Hive scripts"
            }, 
            "colorSchema": {
                "group": {
                    "bgcolor" : "#fdfddc",
                    "color" : "#393b3d",
                    "borderColor" : "#827d41",
                    "positive" : true
                },
                "object": {
                    "bgcolor" : "#bcbc55",
                    "color" : "#ffffff",
                    "borderWidth" : 0,
                    "positive" : false
                },
                "column": {
                    "bgcolor" : "#ffffff",
                    "color" : "#616365",
                    "borderWidth" : 0,
                    "positive" : true          
                }
            }    
        } ,
        {
            "identification": {
                "type": "resource",
                "value": "Netezza"
            }, 
            "colorSchema": {
                "group": {
                    "bgcolor" : "#faebf8",
                    "color" : "#393b3d",
                    "borderColor" : "#452937",
                    "positive" : true
                },
                "object": {
                    "bgcolor" : "#6e374b",
                    "color" : "#ffffff",
                    "borderWidth" : 0,
                    "positive" : false
                },
                "column": {
                    "bgcolor" : "#ffffff",
                    "color" : "#616365",
                    "borderWidth" : 0,
                    "positive" : true          
                }
            }    
        } ,
        {
            "identification": {
                "type": "resource",
                "value": "Netezza scripts"
            }, 
            "colorSchema": {
                "group": {
                    "bgcolor" : "#f8edfd",
                    "color" : "#393b3d",
                    "borderColor" : "#523644",
                    "positive" : true
                },
                "object": {
                    "bgcolor" : "#895a71",
                    "color" : "#ffffff",
                    "borderWidth" : 0,
                    "positive" : false
                },
                "column": {
                    "bgcolor" : "#ffffff",
                    "color" : "#616365",
                    "borderWidth" : 0,
                    "positive" : true          
                }
            }    
        } ,
        {
            "identification": {
                "type": "resource",
                "value": "DB2"
            }, 
            "colorSchema": {
                "group": {
                    "bgcolor" : "#f0ebff",
                    "color" : "#393b3d",
                    "borderColor" : "#482145",
                    "positive" : true
                },
                "object": {
                    "bgcolor" : "#783773",
                    "color" : "#ffffff",
                    "borderWidth" : 0,
                    "positive" : false
                },
                "column": {
                    "bgcolor" : "#ffffff",
                    "color" : "#616365",
                    "borderWidth" : 0,
                    "positive" : true          
                }
            }    
        } ,
        {
            "identification": {
                "type": "resource",
                "value": "DB2 scripts"
            }, 
            "colorSchema": {
                "group": {
                    "bgcolor" : "#f8f3ff",
                    "color" : "#393b3d",
                    "borderColor" : "#673c62",
                    "positive" : true
                },
                "object": {
                    "bgcolor" : "#975790",
                    "color" : "#ffffff",
                    "borderWidth" : 0,
                    "positive" : false
                },
                "column": {
                    "bgcolor" : "#ffffff",
                    "color" : "#616365",
                    "borderWidth" : 0,
                    "positive" : true          
                }
            }    
        } ,
        {
            "identification": {
                "type": "resource",
                "value": "Business Glossary"
            }, 
            "colorSchema": {
                "group": {
                    "bgcolor" : "#e5f0ff",
                    "color" : "#393b3d",
                    "borderColor" : "#282542",
                    "positive" : true
                },
                "object": {
                    "bgcolor" : "#423e6e",
                    "color" : "#ffffff",
                    "borderWidth" : 0,
                    "positive" : false
                },
                "column": {
                    "bgcolor" : "#ffffff",
                    "color" : "#616365",
                    "borderWidth" : 0,
                    "positive" : true          
                }
            }    
        } ,
        {
            "identification": {
                "type": "resource",
                "value": "Business Transformation"
            }, 
            "colorSchema": {
                "group": {
                    "bgcolor" : "#f0f0fc",
                    "color" : "#393b3d",
                    "borderColor" : "#3e3c59",
                    "positive" : true
                },
                "object": {
                    "bgcolor" : "#686494",
                    "color" : "#ffffff",
                    "borderWidth" : 0,
                    "positive" : false
                },
                "column": {
                    "bgcolor" : "#ffffff",
                    "color" : "#616365",
                    "borderWidth" : 0,
                    "positive" : true          
                }
            }    
        }
    ]
}