\relax 
\providecommand\hyper@newdestlabel[2]{}
\providecommand{\transparent@use}[1]{}
\providecommand*{\memsetcounter}[2]{}
\providecommand\HyperFirstAtBeginDocument{\AtBeginDocument}
\HyperFirstAtBeginDocument{\ifx\hyper@anchor\@undefined
\global\let\oldcontentsline\contentsline
\gdef\contentsline#1#2#3#4{\oldcontentsline{#1}{#2}{#3}}
\global\let\oldnewlabel\newlabel
\gdef\newlabel#1#2{\newlabelxx{#1}#2}
\gdef\newlabelxx#1#2#3#4#5#6{\oldnewlabel{#1}{{#2}{#3}}}
\AtEndDocument{\ifx\hyper@anchor\@undefined
\let\contentsline\oldcontentsline
\let\newlabel\oldnewlabel
\fi}
\fi}
\global\let\hyper@last\relax 
\gdef\HyperFirstAtBeginDocument#1{#1}
\providecommand\HyField@AuxAddToFields[1]{}
\providecommand\HyField@AuxAddToCoFields[2]{}
\providecommand\tcolorbox@label[2]{}
\providecommand\@newglossary[4]{}
\@newglossary{main}{glg}{gls}{glo}
\@newglossary{acronym}{alg}{acr}{acn}
\select@language{UKenglish}
\@writefile{toc}{\select@language{UKenglish}}
\@writefile{lof}{\select@language{UKenglish}}
\@writefile{lot}{\select@language{UKenglish}}
\select@language{UKenglish}
\@writefile{toc}{\select@language{UKenglish}}
\@writefile{lof}{\select@language{UKenglish}}
\@writefile{lot}{\select@language{UKenglish}}
\select@language{UKenglish}
\@writefile{toc}{\select@language{UKenglish}}
\@writefile{lof}{\select@language{UKenglish}}
\@writefile{lot}{\select@language{UKenglish}}
\@writefile{toc}{\contentsline {subsection}{Citation of this thesis}{viii}{section*.1}}
\citation{petr_holecek_thesis}
\@writefile{lof}{\addvspace {10pt}}
\@writefile{lot}{\addvspace {10pt}}
\@writefile{toc}{\contentsline {chapter}{Introduction}{1}{chapter*.5}}
\citation{manta_2017}
\citation{informatica_marketplace}
\citation{manta_2017_hermann}
\citation{capterra}
\@writefile{lof}{\addvspace {10pt}}
\@writefile{lot}{\addvspace {10pt}}
\@writefile{toc}{\contentsline {chapter}{\chapternumberline {1}Background}{3}{chapter.1}}
\@writefile{toc}{\contentsline {section}{\numberline {1.1}Manta Flow}{3}{section.1.1}}
\citation{titan_home}
\citation{titan_transaction_handling}
\citation{titan_architecture}
\citation{titan_architecture}
\citation{titan_home}
\citation{titan_persistit}
\@writefile{toc}{\contentsline {subsection}{\numberline {1.1.1}Manta Flow architecture}{4}{subsection.1.1.1}}
\newlabel{sec:manta_flow_architecture}{{1.1.1}{4}{Manta Flow architecture}{subsection.1.1.1}{}}
\@writefile{toc}{\contentsline {section}{\numberline {1.2}Graph database Titan}{4}{section.1.2}}
\@writefile{toc}{\contentsline {subsection}{\numberline {1.2.1}Titan architecture}{4}{subsection.1.2.1}}
\newlabel{sec:titan_architecture}{{1.2.1}{4}{Titan architecture}{subsection.1.2.1}{}}
\citation{titan_tinkerpop_graph_stack}
\citation{titan_blueprints}
\@writefile{lof}{\contentsline {figure}{\numberline {1.1}{\ignorespaces High-level Titan architecture and Context\relax }}{5}{figure.caption.6}}
\providecommand*\caption@xref[2]{\@setref\relax\@undefined{#1}}
\newlabel{fig:titan_architecture}{{1.1}{5}{High-level Titan architecture and Context\relax }{figure.caption.6}{}}
\citation{titan_architecture}
\citation{titan_data_model}
\citation{bigtable}
\citation{titan_data_model}
\@writefile{lof}{\contentsline {figure}{\numberline {1.2}{\ignorespaces TinkerPop system architecture\relax }}{6}{figure.caption.7}}
\newlabel{fig:tinkerPop_graph_stack}{{1.2}{6}{TinkerPop system architecture\relax }{figure.caption.7}{}}
\@writefile{toc}{\contentsline {subsection}{\numberline {1.2.2}Physical data model}{6}{subsection.1.2.2}}
\newlabel{subsec:physical_data_model}{{1.2.2}{6}{Physical data model}{subsection.1.2.2}{}}
\citation{titan_data_model}
\@writefile{lof}{\contentsline {figure}{\numberline {1.3}{\ignorespaces BigTable data model\relax }}{7}{figure.caption.8}}
\newlabel{fig:big_table_model}{{1.3}{7}{BigTable data model\relax }{figure.caption.8}{}}
\@writefile{lof}{\contentsline {figure}{\numberline {1.4}{\ignorespaces Titan data layout\relax }}{7}{figure.caption.9}}
\newlabel{fig:titan_storage_layout}{{1.4}{7}{Titan data layout\relax }{figure.caption.9}{}}
\@writefile{lof}{\contentsline {figure}{\numberline {1.5}{\ignorespaces Edge and property layout\relax }}{7}{figure.caption.10}}
\newlabel{fig:titan_edge_layout}{{1.5}{7}{Edge and property layout\relax }{figure.caption.10}{}}
\citation{tinkerpop_gremlin_property_graph}
\@writefile{toc}{\contentsline {subsection}{\numberline {1.2.3}Logical data model}{8}{subsection.1.2.3}}
\@writefile{toc}{\contentsline {section}{\numberline {1.3}Data model in Manta Flow}{8}{section.1.3}}
\@writefile{toc}{\contentsline {subsection}{\numberline {1.3.1}Vertices}{8}{subsection.1.3.1}}
\newlabel{sec:vertices}{{1.3.1}{8}{Vertices}{subsection.1.3.1}{}}
\@writefile{lof}{\contentsline {figure}{\numberline {1.6}{\ignorespaces Example of a property graph\relax }}{9}{figure.caption.11}}
\newlabel{fig:propertyGraph}{{1.6}{9}{Example of a property graph\relax }{figure.caption.11}{}}
\@writefile{toc}{\contentsline {subsection}{\numberline {1.3.2}Edges}{11}{subsection.1.3.2}}
\newlabel{sec:edges}{{1.3.2}{11}{Edges}{subsection.1.3.2}{}}
\@writefile{toc}{\contentsline {section}{\numberline {1.4}Determination of a node's resource}{14}{section.1.4}}
\newlabel{sec:node_and_resource}{{1.4}{14}{Determination of a node's resource}{section.1.4}{}}
\@writefile{loa}{\contentsline {algorithm}{\numberline {1}{\ignorespaces Find resource of a node\relax }}{14}{algorithm.1}}
\newlabel{alg:find_resource}{{1}{14}{Find resource of a node\relax }{algorithm.1}{}}
\@writefile{lof}{\contentsline {figure}{\numberline {1.7}{\ignorespaces Example of a relationship between a node and resource\relax }}{15}{figure.caption.12}}
\newlabel{fig:node_and_resource}{{1.7}{15}{Example of a relationship between a node and resource\relax }{figure.caption.12}{}}
\@writefile{toc}{\contentsline {section}{\numberline {1.5}Graph structure}{15}{section.1.5}}
\@writefile{toc}{\contentsline {subsection}{\numberline {1.5.1}Main graph}{15}{subsection.1.5.1}}
\newlabel{sec:main_graph}{{1.5.1}{15}{Main graph}{subsection.1.5.1}{}}
\@writefile{lof}{\contentsline {figure}{\numberline {1.8}{\ignorespaces Example of a main graph hierarchy\relax }}{16}{figure.caption.13}}
\newlabel{fig:main_graph}{{1.8}{16}{Example of a main graph hierarchy\relax }{figure.caption.13}{}}
\@writefile{toc}{\contentsline {subsection}{\numberline {1.5.2}Graph with source nodes}{16}{subsection.1.5.2}}
\newlabel{subsec:graph_source_nodes}{{1.5.2}{16}{Graph with source nodes}{subsection.1.5.2}{}}
\@writefile{lof}{\contentsline {figure}{\numberline {1.9}{\ignorespaces Hierarchy of a graph with source code files\relax }}{16}{figure.caption.14}}
\newlabel{fig:graphSourceCode}{{1.9}{16}{Hierarchy of a graph with source code files\relax }{figure.caption.14}{}}
\@writefile{toc}{\contentsline {subsection}{\numberline {1.5.3}Graph with revisions}{17}{subsection.1.5.3}}
\@writefile{lof}{\contentsline {figure}{\numberline {1.10}{\ignorespaces Hierarchy of a graph with revisions\relax }}{17}{figure.caption.15}}
\newlabel{fig:graphRevisions}{{1.10}{17}{Hierarchy of a graph with revisions\relax }{figure.caption.15}{}}
\@writefile{toc}{\contentsline {section}{\numberline {1.6}Graph creation}{17}{section.1.6}}
\newlabel{sec:graph_creation}{{1.6}{17}{Graph creation}{section.1.6}{}}
\@writefile{toc}{\contentsline {section}{\numberline {1.7}Source code files}{18}{section.1.7}}
\newlabel{sec:source_code_files}{{1.7}{18}{Source code files}{section.1.7}{}}
\@writefile{toc}{\contentsline {subsection}{\numberline {1.7.1}Example}{18}{subsection.1.7.1}}
\@writefile{lof}{\contentsline {figure}{\numberline {1.11}{\ignorespaces Example of the source code file management\relax }}{19}{figure.caption.16}}
\newlabel{fig:source_code_files}{{1.11}{19}{Example of the source code file management\relax }{figure.caption.16}{}}
\citation{interpolation}
\@writefile{toc}{\contentsline {section}{\numberline {1.8}Interpolation}{20}{section.1.8}}
\newlabel{sec:interpolation}{{1.8}{20}{Interpolation}{section.1.8}{}}
\@writefile{lof}{\contentsline {figure}{\numberline {1.12}{\ignorespaces Example of interpolation\relax }}{20}{figure.caption.17}}
\newlabel{fig:interpolation}{{1.12}{20}{Example of interpolation\relax }{figure.caption.17}{}}
\citation{titan_indices_overview}
\citation{titan_type_definition_overview}
\citation{titan_indices_overview}
\@writefile{toc}{\contentsline {section}{\numberline {1.9}Indexing}{21}{section.1.9}}
\newlabel{sec:indexing}{{1.9}{21}{Indexing}{section.1.9}{}}
\@writefile{toc}{\contentsline {subsection}{\numberline {1.9.1}Standard index}{21}{subsection.1.9.1}}
\@writefile{toc}{\contentsline {subsection}{\numberline {1.9.2}External index}{21}{subsection.1.9.2}}
\citation{titan_lucene}
\citation{titan_vertex_centric_indices}
\citation{titan_vertex_centric_indices}
\@writefile{toc}{\contentsline {subsection}{\numberline {1.9.3}Vertex-centric index}{22}{subsection.1.9.3}}
\newlabel{subsec:vertex_centric_indices}{{1.9.3}{22}{Vertex-centric index}{subsection.1.9.3}{}}
\@writefile{toc}{\contentsline {subsection}{\numberline {1.9.4}Indices in Manta Flow}{22}{subsection.1.9.4}}
\newlabel{sec:indices_in_manta_flow}{{1.9.4}{22}{Indices in Manta Flow}{subsection.1.9.4}{}}
\citation{petr_holecek_thesis}
\citation{petr_holecek_thesis}
\@writefile{toc}{\contentsline {section}{\numberline {1.10}Version control}{24}{section.1.10}}
\newlabel{sec:current_implementation}{{1.10}{24}{Version control}{section.1.10}{}}
\@writefile{toc}{\contentsline {subsection}{\numberline {1.10.1}Revisions}{24}{subsection.1.10.1}}
\newlabel{sec:revisions}{{1.10.1}{24}{Revisions}{subsection.1.10.1}{}}
\@writefile{lof}{\contentsline {figure}{\numberline {1.13}{\ignorespaces Example of revisions in revision tree\relax }}{24}{figure.caption.18}}
\newlabel{fig:revisions2}{{1.13}{24}{Example of revisions in revision tree\relax }{figure.caption.18}{}}
\@writefile{toc}{\contentsline {subsection}{\numberline {1.10.2}Revision tracking in the graph}{24}{subsection.1.10.2}}
\newlabel{sec:revision_tracking}{{1.10.2}{24}{Revision tracking in the graph}{subsection.1.10.2}{}}
\@writefile{lot}{\contentsline {table}{\numberline {1.1}{\ignorespaces Summary of vertices' control edges\relax }}{25}{table.caption.19}}
\newlabel{tab:myfirsttable}{{1.1}{25}{Summary of vertices' control edges\relax }{table.caption.19}{}}
\@writefile{lof}{\contentsline {figure}{\numberline {1.14}{\ignorespaces Example of revision tracking in the main graph\relax }}{26}{figure.caption.20}}
\newlabel{fig:revisionTracking}{{1.14}{26}{Example of revision tracking in the main graph\relax }{figure.caption.20}{}}
\@writefile{toc}{\contentsline {subsection}{\numberline {1.10.3}Operations with revisions}{26}{subsection.1.10.3}}
\@writefile{toc}{\contentsline {subsection}{\numberline {1.10.4}Merge}{28}{subsection.1.10.4}}
\newlabel{sec:merge}{{1.10.4}{28}{Merge}{subsection.1.10.4}{}}
\@writefile{toc}{\contentsline {section}{\numberline {1.11}Analysis of the current implementation}{29}{section.1.11}}
\newlabel{sec:analysis_of_current_implementation}{{1.11}{29}{Analysis of the current implementation}{section.1.11}{}}
\@writefile{lof}{\contentsline {figure}{\numberline {1.15}{\ignorespaces Example of merged changed graph\relax }}{30}{figure.caption.21}}
\newlabel{fig:mergeExample}{{1.15}{30}{Example of merged changed graph\relax }{figure.caption.21}{}}
\@writefile{toc}{\contentsline {section}{\numberline {1.12}Summary}{31}{section.1.12}}
\citation{svn_basics}
\citation{svn_version_control_subversion_way}
\@writefile{lof}{\addvspace {10pt}}
\@writefile{lot}{\addvspace {10pt}}
\@writefile{toc}{\contentsline {chapter}{\chapternumberline {2}Related work and inspiration}{33}{chapter.2}}
\@writefile{toc}{\contentsline {section}{\numberline {2.1}Subversion}{33}{section.2.1}}
\citation{svn_basic_work_cycle}
\@writefile{lof}{\contentsline {figure}{\numberline {2.1}{\ignorespaces Subversion basic operations\relax }}{34}{figure.caption.22}}
\newlabel{fig:svn_operations}{{2.1}{34}{Subversion basic operations\relax }{figure.caption.22}{}}
\@writefile{toc}{\contentsline {subsection}{\numberline {2.1.1}Working copy}{34}{subsection.2.1.1}}
\citation{svn_design}
\citation{svn_wc-ng_nodes}
\citation{svn_wc-ng_design}
\@writefile{lof}{\contentsline {figure}{\numberline {2.2}{\ignorespaces Example of a working copy\relax }}{35}{figure.caption.23}}
\newlabel{fig:workingCopy_dirTree}{{2.2}{35}{Example of a working copy\relax }{figure.caption.23}{}}
\citation{svn_everything_wrong}
\citation{svn_data_store}
\citation{svn_design}
\@writefile{toc}{\contentsline {subsection}{\numberline {2.1.2}Repository}{36}{subsection.2.1.2}}
\@writefile{toc}{\contentsline {subsubsection}{\numberline {2.1.2.1}Repository structure}{37}{subsubsection.2.1.2.1}}
\citation{svn_design}
\@writefile{toc}{\contentsline {subsubsection}{\numberline {2.1.2.2}Bubble-up method}{38}{subsubsection.2.1.2.2}}
\newlabel{sec:bubbleUpMethod}{{2.1.2.2}{38}{Bubble-up method}{subsubsection.2.1.2.2}{}}
\@writefile{lof}{\contentsline {figure}{\numberline {2.3}{\ignorespaces Initial state of repository\relax }}{39}{figure.caption.24}}
\newlabel{fig:bubble1}{{2.3}{39}{Initial state of repository\relax }{figure.caption.24}{}}
\@writefile{lof}{\contentsline {figure}{\numberline {2.4}{\ignorespaces Bubble-up method - example 1\relax }}{40}{figure.caption.25}}
\newlabel{fig:bubble2}{{2.4}{40}{Bubble-up method - example 1\relax }{figure.caption.25}{}}
\citation{svn_design}
\@writefile{lof}{\contentsline {figure}{\numberline {2.5}{\ignorespaces Bubble-up method - example 2\relax }}{41}{figure.caption.26}}
\newlabel{fig:bubble3}{{2.5}{41}{Bubble-up method - example 2\relax }{figure.caption.26}{}}
\citation{merc_repository}
\@writefile{toc}{\contentsline {section}{\numberline {2.2}Mercurial}{42}{section.2.2}}
\citation{merc_cvs_concepts}
\@writefile{lof}{\contentsline {figure}{\numberline {2.6}{\ignorespaces Basic operations in Mercurial\relax }}{43}{figure.caption.27}}
\newlabel{fig:mercurial_operations}{{2.6}{43}{Basic operations in Mercurial\relax }{figure.caption.27}{}}
\citation{merc_behind_the_scenes}
\citation{merc_behind_the_scenes}
\citation{merc_behind_the_scenes}
\citation{merc_behind_the_scenes}
\@writefile{toc}{\contentsline {subsection}{\numberline {2.2.1}Metadata structure and relationship}{44}{subsection.2.2.1}}
\@writefile{lof}{\contentsline {figure}{\numberline {2.7}{\ignorespaces Metadata relationships\relax }}{44}{figure.caption.28}}
\newlabel{fig:merc_metadata_relationships}{{2.7}{44}{Metadata relationships\relax }{figure.caption.28}{}}
\citation{merc_behind_the_scenes}
\citation{merc_behind_the_scenes}
\citation{merc_revlog}
\citation{merc_revlog}
\citation{merc_behind_the_scenes}
\citation{merc_revlogNG}
\@writefile{toc}{\contentsline {subsection}{\numberline {2.2.2}Revlog}{45}{subsection.2.2.2}}
\newlabel{sec:revlog}{{2.2.2}{45}{Revlog}{subsection.2.2.2}{}}
\citation{merc_revlog}
\citation{merc_nodeid}
\@writefile{lof}{\contentsline {figure}{\numberline {2.8}{\ignorespaces Revlog layout\relax }}{46}{figure.caption.29}}
\newlabel{fig:merc_revlog_layout}{{2.8}{46}{Revlog layout\relax }{figure.caption.29}{}}
\@writefile{lot}{\contentsline {table}{\numberline {2.1}{\ignorespaces Sample content of an index file in the revlog format\relax }}{47}{table.caption.30}}
\newlabel{tab:revlog_index}{{2.1}{47}{Sample content of an index file in the revlog format\relax }{table.caption.30}{}}
\citation{merc_design}
\@writefile{lof}{\contentsline {figure}{\numberline {2.9}{\ignorespaces Metadata hierarchy using the revlog structure\relax }}{48}{figure.caption.31}}
\newlabel{fig:merc_metadata_hierarchy}{{2.9}{48}{Metadata hierarchy using the revlog structure\relax }{figure.caption.31}{}}
\citation{merc_changeset}
\@writefile{toc}{\contentsline {subsection}{\numberline {2.2.3}Committing changes}{49}{subsection.2.2.3}}
\@writefile{toc}{\contentsline {subsubsection}{\numberline {2.2.3.1}First stage - top to bottom}{49}{subsubsection.2.2.3.1}}
\@writefile{lof}{\contentsline {figure}{\numberline {2.10}{\ignorespaces Parent revision of a working directory\relax }}{49}{figure.caption.32}}
\newlabel{fig:merc_dirstate}{{2.10}{49}{Parent revision of a working directory\relax }{figure.caption.32}{}}
\newlabel{lst:changeset}{{2.1}{50}{Sample content of a changeset}{lstlisting.2.1}{}}
\@writefile{lol}{\contentsline {lstlisting}{\numberline {2.1}Sample content of a changeset}{50}{lstlisting.2.1}}
\newlabel{lst:manifest}{{2.2}{50}{Sample content of a manifest}{lstlisting.2.2}{}}
\@writefile{lol}{\contentsline {lstlisting}{\numberline {2.2}Sample content of a manifest}{50}{lstlisting.2.2}}
\@writefile{toc}{\contentsline {subsubsection}{\numberline {2.2.3.2}Second stage - bottom to top}{51}{subsubsection.2.2.3.2}}
\citation{incremental_backup}
\@writefile{toc}{\contentsline {section}{\numberline {2.3}Incremental backups in databases}{52}{section.2.3}}
\@writefile{toc}{\contentsline {subsection}{\numberline {2.3.1}Differential incremental backup}{52}{subsection.2.3.1}}
\@writefile{lof}{\contentsline {figure}{\numberline {2.11}{\ignorespaces Differential incremental backup\relax }}{52}{figure.caption.33}}
\newlabel{fig:differential_incremental_backup}{{2.11}{52}{Differential incremental backup\relax }{figure.caption.33}{}}
\citation{incremental_backup}
\@writefile{toc}{\contentsline {subsection}{\numberline {2.3.2}Cumulative incremental backup}{53}{subsection.2.3.2}}
\@writefile{lof}{\contentsline {figure}{\numberline {2.12}{\ignorespaces Cumulative incremental backup\relax }}{53}{figure.caption.34}}
\newlabel{fig:cumulative_incremental_backup}{{2.12}{53}{Cumulative incremental backup\relax }{figure.caption.34}{}}
\@writefile{toc}{\contentsline {subsection}{\numberline {2.3.3}Combined incremental backup}{54}{subsection.2.3.3}}
\@writefile{lof}{\contentsline {figure}{\numberline {2.13}{\ignorespaces Combined incremental backup\relax }}{54}{figure.caption.35}}
\newlabel{fig:combined_incremental_backup}{{2.13}{54}{Combined incremental backup\relax }{figure.caption.35}{}}
\@writefile{toc}{\contentsline {section}{\numberline {2.4}Observation}{54}{section.2.4}}
\newlabel{sec:summary_cvs_incr_backup}{{2.4}{54}{Observation}{section.2.4}{}}
\@writefile{toc}{\contentsline {subsection}{\numberline {2.4.1}Data changes}{54}{subsection.2.4.1}}
\newlabel{sec:data_changes}{{2.4.1}{54}{Data changes}{subsection.2.4.1}{}}
\citation{manta_flow_client_architecture}
\@writefile{toc}{\contentsline {subsection}{\numberline {2.4.2}Repository update}{56}{subsection.2.4.2}}
\@writefile{toc}{\contentsline {subsection}{\numberline {2.4.3}Incremental backups}{56}{subsection.2.4.3}}
\@writefile{toc}{\contentsline {subsection}{\numberline {2.4.4}Summary}{57}{subsection.2.4.4}}
\citation{petr_holecek_thesis}
\@writefile{lof}{\addvspace {10pt}}
\@writefile{lot}{\addvspace {10pt}}
\@writefile{toc}{\contentsline {chapter}{\chapternumberline {3}Analysis and Design}{59}{chapter.3}}
\@writefile{toc}{\contentsline {section}{\numberline {3.1}Revision data representation}{59}{section.3.1}}
\newlabel{sec:revision_data_representation}{{3.1}{59}{Revision data representation}{section.3.1}{}}
\@writefile{toc}{\contentsline {subsection}{\numberline {3.1.1}Closed end revision}{60}{subsection.3.1.1}}
\@writefile{lof}{\contentsline {figure}{\numberline {3.1}{\ignorespaces Small change in the graph with closed end revisions\relax }}{61}{figure.caption.36}}
\newlabel{fig:closed_end_revision}{{3.1}{61}{Small change in the graph with closed end revisions\relax }{figure.caption.36}{}}
\@writefile{lof}{\contentsline {figure}{\numberline {3.2}{\ignorespaces Large removal in the graph with closed end revisions\relax }}{62}{figure.caption.37}}
\newlabel{fig:closed_end_revision_2}{{3.2}{62}{Large removal in the graph with closed end revisions\relax }{figure.caption.37}{}}
\@writefile{toc}{\contentsline {subsection}{\numberline {3.1.2}Unclosed end revision}{62}{subsection.3.1.2}}
\@writefile{lof}{\contentsline {figure}{\numberline {3.3}{\ignorespaces Small change in the graph with unclosed end revisions\relax }}{63}{figure.caption.38}}
\newlabel{fig:unclosed_end_revision}{{3.3}{63}{Small change in the graph with unclosed end revisions\relax }{figure.caption.38}{}}
\@writefile{lof}{\contentsline {figure}{\numberline {3.4}{\ignorespaces Large removal in the graph with closed end revisions\relax }}{64}{figure.caption.39}}
\newlabel{fig:unclosed_end_revision_2}{{3.4}{64}{Large removal in the graph with closed end revisions\relax }{figure.caption.39}{}}
\@writefile{toc}{\contentsline {subsection}{\numberline {3.1.3}Two-level revision}{64}{subsection.3.1.3}}
\newlabel{sec:two_level_revision}{{3.1.3}{64}{Two-level revision}{subsection.3.1.3}{}}
\@writefile{lof}{\contentsline {figure}{\numberline {3.5}{\ignorespaces Small change in the graph - incremental update\relax }}{66}{figure.caption.40}}
\newlabel{fig:subrevisions}{{3.5}{66}{Small change in the graph - incremental update\relax }{figure.caption.40}{}}
\@writefile{lof}{\contentsline {figure}{\numberline {3.6}{\ignorespaces Large removal in the graph - full update\relax }}{67}{figure.caption.41}}
\newlabel{fig:subrevisions_2}{{3.6}{67}{Large removal in the graph - full update\relax }{figure.caption.41}{}}
\@writefile{toc}{\contentsline {subsection}{\numberline {3.1.4}Integer vs Decimal}{67}{subsection.3.1.4}}
\newlabel{sec:integer_vs_decimal}{{3.1.4}{67}{Integer vs Decimal}{subsection.3.1.4}{}}
\citation{titan_limitations}
\@writefile{toc}{\contentsline {subsection}{\numberline {3.1.5}Revision tree}{69}{subsection.3.1.5}}
\newlabel{sec:revision_tree}{{3.1.5}{69}{Revision tree}{subsection.3.1.5}{}}
\@writefile{lof}{\contentsline {figure}{\numberline {3.7}{\ignorespaces Example of a revision tree\relax }}{70}{figure.caption.42}}
\newlabel{fig:revision_tree_new}{{3.7}{70}{Example of a revision tree\relax }{figure.caption.42}{}}
\@writefile{toc}{\contentsline {subsection}{\numberline {3.1.6}Full update vs incremental update}{72}{subsection.3.1.6}}
\newlabel{ineq:1}{{3.1}{72}{Full update vs incremental update}{equation.3.1.1}{}}
\newlabel{ineq:2}{{3.2}{72}{Full update vs incremental update}{equation.3.1.2}{}}
\newlabel{ineq:3}{{3.3}{73}{Full update vs incremental update}{equation.3.1.3}{}}
\newlabel{ineq:last}{{3.4}{73}{Full update vs incremental update}{equation.3.1.4}{}}
\@writefile{toc}{\contentsline {section}{\numberline {3.2}Update}{73}{section.3.2}}
\newlabel{sec:update}{{3.2}{73}{Update}{section.3.2}{}}
\@writefile{toc}{\contentsline {subsection}{\numberline {3.2.1}Full update}{74}{subsection.3.2.1}}
\@writefile{lof}{\contentsline {figure}{\numberline {3.8}{\ignorespaces Full update - initial state\relax }}{75}{figure.caption.43}}
\newlabel{fig:full_update}{{3.8}{75}{Full update - initial state\relax }{figure.caption.43}{}}
\@writefile{lof}{\contentsline {figure}{\numberline {3.9}{\ignorespaces Full update - merging resource and layer\relax }}{75}{figure.caption.44}}
\newlabel{fig:full_update_step_one}{{3.9}{75}{Full update - merging resource and layer\relax }{figure.caption.44}{}}
\@writefile{lof}{\contentsline {figure}{\numberline {3.10}{\ignorespaces Full update - merging node A\relax }}{76}{figure.caption.45}}
\newlabel{fig:full_update_step_two}{{3.10}{76}{Full update - merging node A\relax }{figure.caption.45}{}}
\@writefile{lof}{\contentsline {figure}{\numberline {3.11}{\ignorespaces Full update - merging node C\relax }}{76}{figure.caption.46}}
\newlabel{fig:full_update_step_three}{{3.11}{76}{Full update - merging node C\relax }{figure.caption.46}{}}
\@writefile{toc}{\contentsline {subsection}{\numberline {3.2.2}Incremental update}{76}{subsection.3.2.2}}
\newlabel{sec:incremental_update}{{3.2.2}{76}{Incremental update}{subsection.3.2.2}{}}
\@writefile{lof}{\contentsline {figure}{\numberline {3.12}{\ignorespaces Subgraph merge - initial state\relax }}{77}{figure.caption.47}}
\newlabel{fig:subgraph_merge}{{3.12}{77}{Subgraph merge - initial state\relax }{figure.caption.47}{}}
\@writefile{lof}{\contentsline {figure}{\numberline {3.13}{\ignorespaces Merging resource and layer\relax }}{78}{figure.caption.48}}
\newlabel{fig:subgraph_merge_2}{{3.13}{78}{Merging resource and layer\relax }{figure.caption.48}{}}
\@writefile{lof}{\contentsline {figure}{\numberline {3.14}{\ignorespaces Merging nodes B and E\relax }}{79}{figure.caption.49}}
\newlabel{fig:subgraph_merge_3}{{3.14}{79}{Merging nodes B and E\relax }{figure.caption.49}{}}
\@writefile{lof}{\contentsline {figure}{\numberline {3.15}{\ignorespaces Removing subgraph with the root node A\relax }}{79}{figure.caption.50}}
\newlabel{fig:subgraph_merge_4}{{3.15}{79}{Removing subgraph with the root node A\relax }{figure.caption.50}{}}
\@writefile{lof}{\contentsline {figure}{\numberline {3.16}{\ignorespaces Merging subgraph with the root node A\relax }}{80}{figure.caption.51}}
\newlabel{fig:subgraph_merge_5}{{3.16}{80}{Merging subgraph with the root node A\relax }{figure.caption.51}{}}
\@writefile{lof}{\contentsline {figure}{\numberline {3.17}{\ignorespaces Merging data flow from the node G to the node E\relax }}{81}{figure.caption.52}}
\newlabel{fig:subgraph_merge_6}{{3.17}{81}{Merging data flow from the node G to the node E\relax }{figure.caption.52}{}}
\@writefile{toc}{\contentsline {section}{\numberline {3.3}Input}{82}{section.3.3}}
\newlabel{sec:input}{{3.3}{82}{Input}{section.3.3}{}}
\newlabel{lst:procedure2_v2}{{3.1}{83}{Procedure - insert statement added}{lstlisting.3.1}{}}
\@writefile{lol}{\contentsline {lstlisting}{\numberline {3.1}Procedure - insert statement added}{83}{lstlisting.3.1}}
\@writefile{lof}{\contentsline {figure}{\numberline {3.18}{\ignorespaces Input subgraph\relax }}{84}{figure.caption.53}}
\newlabel{fig:input_subgraph}{{3.18}{84}{Input subgraph\relax }{figure.caption.53}{}}
\@writefile{toc}{\contentsline {section}{\numberline {3.4}Customization}{84}{section.3.4}}
\@writefile{toc}{\contentsline {subsection}{\numberline {3.4.1}Inconsistency}{84}{subsection.3.4.1}}
\newlabel{lst:procedure}{{3.2}{85}{Procedure}{lstlisting.3.2}{}}
\@writefile{lol}{\contentsline {lstlisting}{\numberline {3.2}Procedure}{85}{lstlisting.3.2}}
\newlabel{lst:script}{{3.3}{85}{Script}{lstlisting.3.3}{}}
\@writefile{lol}{\contentsline {lstlisting}{\numberline {3.3}Script}{85}{lstlisting.3.3}}
\newlabel{lst:procedure_2}{{3.4}{85}{Procedure - renamed parameters}{lstlisting.3.4}{}}
\@writefile{lol}{\contentsline {lstlisting}{\numberline {3.4}Procedure - renamed parameters}{85}{lstlisting.3.4}}
\@writefile{lof}{\contentsline {figure}{\numberline {3.19}{\ignorespaces Script and procedure in the main graph\relax }}{86}{figure.caption.54}}
\newlabel{fig:script_and_procedure}{{3.19}{86}{Script and procedure in the main graph\relax }{figure.caption.54}{}}
\@writefile{lof}{\contentsline {figure}{\numberline {3.20}{\ignorespaces Input subgraph of the changed procedure\relax }}{87}{figure.caption.55}}
\newlabel{fig:input_subgraph_2}{{3.20}{87}{Input subgraph of the changed procedure\relax }{figure.caption.55}{}}
\@writefile{lof}{\contentsline {figure}{\numberline {3.21}{\ignorespaces Script and procedure in the main graph after the merge\relax }}{87}{figure.caption.56}}
\newlabel{fig:script_and_procedure_2}{{3.21}{87}{Script and procedure in the main graph after the merge\relax }{figure.caption.56}{}}
\@writefile{toc}{\contentsline {subsection}{\numberline {3.4.2}Object creation and removal}{89}{subsection.3.4.2}}
\newlabel{sec:object_creation_and_removal}{{3.4.2}{89}{Object creation and removal}{subsection.3.4.2}{}}
\@writefile{toc}{\contentsline {subsection}{\numberline {3.4.3}Overflow}{90}{subsection.3.4.3}}
\newlabel{sec:overflow}{{3.4.3}{90}{Overflow}{subsection.3.4.3}{}}
\@writefile{toc}{\contentsline {section}{\numberline {3.5}Summary}{91}{section.3.5}}
\@writefile{lof}{\addvspace {10pt}}
\@writefile{lot}{\addvspace {10pt}}
\@writefile{toc}{\contentsline {chapter}{\chapternumberline {4}Implementation}{95}{chapter.4}}
\@writefile{toc}{\contentsline {section}{\numberline {4.1}Manta Flow server}{95}{section.4.1}}
\@writefile{toc}{\contentsline {subsection}{\numberline {4.1.1}Core}{96}{subsection.4.1.1}}
\@writefile{toc}{\contentsline {subsection}{\numberline {4.1.2}Connector}{96}{subsection.4.1.2}}
\newlabel{subsec:connector}{{4.1.2}{96}{Connector}{subsection.4.1.2}{}}
\newlabel{lst:createRevisionNode}{{4.1}{97}{Method createRevisionNode}{lstlisting.4.1}{}}
\@writefile{lol}{\contentsline {lstlisting}{\numberline {4.1}Method createRevisionNode}{97}{lstlisting.4.1}}
\newlabel{lst:setSubtreeTransactionEnd}{{4.2}{98}{Method setSubtreeTransactionEnd}{lstlisting.4.2}{}}
\@writefile{lol}{\contentsline {lstlisting}{\numberline {4.2}Method setSubtreeTransactionEnd}{98}{lstlisting.4.2}}
\newlabel{lst:deleteSubtree}{{4.3}{99}{Method deleteSubtree}{lstlisting.4.3}{}}
\@writefile{lol}{\contentsline {lstlisting}{\numberline {4.3}Method deleteSubtree}{99}{lstlisting.4.3}}
\newlabel{lst:performTransition}{{4.4}{100}{Method performTransition}{lstlisting.4.4}{}}
\@writefile{lol}{\contentsline {lstlisting}{\numberline {4.4}Method performTransition}{100}{lstlisting.4.4}}
\newlabel{lst:getNextMinorRevNumber}{{4.5}{100}{Method getNextMinorRevision}{lstlisting.4.5}{}}
\@writefile{lol}{\contentsline {lstlisting}{\numberline {4.5}Method getNextMinorRevision}{100}{lstlisting.4.5}}
\@writefile{toc}{\contentsline {subsection}{\numberline {4.1.3}Merger}{101}{subsection.4.1.3}}
\newlabel{subsec:Merger}{{4.1.3}{101}{Merger}{subsection.4.1.3}{}}
\newlabel{lst:processNode}{{4.6}{101}{Method processNode}{lstlisting.4.6}{}}
\@writefile{lol}{\contentsline {lstlisting}{\numberline {4.6}Method processNode}{101}{lstlisting.4.6}}
\newlabel{lst:deleteVerticesFile}{{4.7}{102}{Input file for deleting single vertices}{lstlisting.4.7}{}}
\@writefile{lol}{\contentsline {lstlisting}{\numberline {4.7}Input file for deleting single vertices}{102}{lstlisting.4.7}}
\newlabel{lst:ProcessPathTransactionCallback}{{4.8}{103}{ProcessPathTransactionCallback - callMe method}{lstlisting.4.8}{}}
\@writefile{lol}{\contentsline {lstlisting}{\numberline {4.8}ProcessPathTransactionCallback - callMe method}{103}{lstlisting.4.8}}
\@writefile{toc}{\contentsline {section}{\numberline {4.2}Manta Flow client}{103}{section.4.2}}
\newlabel{sec:manta_flow_client}{{4.2}{103}{Manta Flow client}{section.4.2}{}}
\@writefile{toc}{\contentsline {subsection}{\numberline {4.2.1}NodeFlagTask}{103}{subsection.4.2.1}}
\@writefile{toc}{\contentsline {subsection}{\numberline {4.2.2}IncrementalDeleteTask}{104}{subsection.4.2.2}}
\@writefile{toc}{\contentsline {subsection}{\numberline {4.2.3}DeleteVerticesTask}{104}{subsection.4.2.3}}
\@writefile{toc}{\contentsline {section}{\numberline {4.3}Summary}{105}{section.4.3}}
\@writefile{lof}{\addvspace {10pt}}
\@writefile{lot}{\addvspace {10pt}}
\@writefile{toc}{\contentsline {chapter}{\chapternumberline {5}Performance Testing}{107}{chapter.5}}
\@writefile{toc}{\contentsline {section}{\numberline {5.1}Test cases}{107}{section.5.1}}
\@writefile{toc}{\contentsline {section}{\numberline {5.2}Test data}{109}{section.5.2}}
\@writefile{lot}{\contentsline {table}{\numberline {5.1}{\ignorespaces Input data for test cases 1, 2, 3 and 4\relax }}{109}{table.caption.57}}
\newlabel{tab:input_data_size}{{5.1}{109}{Input data for test cases 1, 2, 3 and 4\relax }{table.caption.57}{}}
\@writefile{lot}{\contentsline {table}{\numberline {5.2}{\ignorespaces Input data for test cases 5 and 6\relax }}{109}{table.caption.58}}
\newlabel{tab:input_data_size2}{{5.2}{109}{Input data for test cases 5 and 6\relax }{table.caption.58}{}}
\@writefile{toc}{\contentsline {section}{\numberline {5.3}Measurement}{109}{section.5.3}}
\@writefile{lot}{\contentsline {table}{\numberline {5.3}{\ignorespaces Average merge time of test cases 1, 2, 3 and 4\relax }}{110}{table.caption.59}}
\newlabel{tab:measurement1}{{5.3}{110}{Average merge time of test cases 1, 2, 3 and 4\relax }{table.caption.59}{}}
\@writefile{lof}{\contentsline {figure}{\numberline {5.1}{\ignorespaces Merge time comparison of test cases 1, 2, 3 and 4\relax }}{110}{figure.caption.60}}
\newlabel{fig:mergeTimeComparison}{{5.1}{110}{Merge time comparison of test cases 1, 2, 3 and 4\relax }{figure.caption.60}{}}
\@writefile{lof}{\contentsline {figure}{\numberline {5.2}{\ignorespaces Merge time comparison of test cases 1, 2, 3 and 4 in a logarithmic scale\relax }}{111}{figure.caption.61}}
\newlabel{fig:mergeTimeComparisonLog}{{5.2}{111}{Merge time comparison of test cases 1, 2, 3 and 4 in a logarithmic scale\relax }{figure.caption.61}{}}
\@writefile{lot}{\contentsline {table}{\numberline {5.4}{\ignorespaces Average delete time of test cases 5 and 6\relax }}{112}{table.caption.62}}
\newlabel{tab:measurement2}{{5.4}{112}{Average delete time of test cases 5 and 6\relax }{table.caption.62}{}}
\@writefile{lof}{\contentsline {figure}{\numberline {5.3}{\ignorespaces Delete time comparison of test cases 5 and 6\relax }}{112}{figure.caption.63}}
\newlabel{fig:deleteTimeComparison}{{5.3}{112}{Delete time comparison of test cases 5 and 6\relax }{figure.caption.63}{}}
\@writefile{toc}{\contentsline {section}{\numberline {5.4}Summary}{113}{section.5.4}}
\bibstyle{iso690}
\bibdata{mybibliographyfile}
\@writefile{lof}{\addvspace {10pt}}
\@writefile{lot}{\addvspace {10pt}}
\@writefile{toc}{\contentsline {chapter}{Conclusion}{115}{chapter*.64}}
\bibcite{petr_holecek_thesis}{1}
\bibcite{manta_2017}{2}
\bibcite{informatica_marketplace}{3}
\bibcite{manta_2017_hermann}{4}
\bibcite{capterra}{5}
\bibcite{titan_home}{6}
\bibcite{titan_transaction_handling}{7}
\bibcite{titan_architecture}{8}
\bibcite{titan_persistit}{9}
\bibcite{titan_tinkerpop_graph_stack}{10}
\bibcite{titan_blueprints}{11}
\@writefile{toc}{\contentsline {chapter}{Bibliography}{117}{section*.66}}
\bibcite{titan_data_model}{12}
\bibcite{bigtable}{13}
\bibcite{tinkerpop_gremlin_property_graph}{14}
\bibcite{interpolation}{15}
\bibcite{titan_indices_overview}{16}
\bibcite{titan_type_definition_overview}{17}
\bibcite{titan_lucene}{18}
\bibcite{titan_vertex_centric_indices}{19}
\bibcite{svn_basics}{20}
\bibcite{svn_version_control_subversion_way}{21}
\bibcite{svn_basic_work_cycle}{22}
\bibcite{svn_design}{23}
\bibcite{svn_wc-ng_nodes}{24}
\bibcite{svn_wc-ng_design}{25}
\bibcite{svn_everything_wrong}{26}
\bibcite{svn_data_store}{27}
\bibcite{merc_repository}{28}
\bibcite{merc_cvs_concepts}{29}
\bibcite{merc_behind_the_scenes}{30}
\bibcite{merc_revlog}{31}
\bibcite{merc_revlogNG}{32}
\bibcite{merc_nodeid}{33}
\bibcite{merc_design}{34}
\bibcite{merc_changeset}{35}
\bibcite{incremental_backup}{36}
\bibcite{manta_flow_client_architecture}{37}
\bibcite{titan_limitations}{38}
\@writefile{lof}{\addvspace {10pt}}
\@writefile{lot}{\addvspace {10pt}}
\@writefile{toc}{\contentsline {appendix}{\chapternumberline {A}Acronyms}{121}{appendix.A}}
\@writefile{lof}{\addvspace {10pt}}
\@writefile{lot}{\addvspace {10pt}}
\@writefile{toc}{\contentsline {appendix}{\chapternumberline {B}Contents of enclosed CD}{123}{appendix.B}}
\newlabel{tab:was:used:in:doc}{{B}{123}{Contents of enclosed CD}{figure.caption.67}{}}
\memsetcounter{lastsheet}{139}
\memsetcounter{lastpage}{123}
